<svg width="367" height="367" viewBox="0 0 367 367" fill="none" xmlns="http://www.w3.org/2000/svg">
<mask id="mask0" mask-type="alpha" maskUnits="userSpaceOnUse" x="0" y="0" width="367" height="367">
<rect width="367" height="367" fill="#C4C4C4"/>
</mask>
<g mask="url(#mask0)">
<path d="M282.648 298.469C282.648 299.664 282.405 300.742 281.919 301.703C281.438 302.664 280.791 303.414 279.976 303.953C279.314 304.369 278.64 304.648 277.955 304.788C277.275 304.929 276.405 304.999 275.344 304.999H272.33V291.912H275.309C276.54 291.912 277.504 292.006 278.201 292.194C278.904 292.375 279.502 292.627 279.994 292.949C280.837 293.506 281.491 294.247 281.954 295.173C282.417 296.093 282.648 297.192 282.648 298.469ZM280.837 298.443C280.837 297.435 280.671 296.576 280.337 295.867C280.003 295.153 279.507 294.596 278.851 294.197C278.388 293.916 277.893 293.714 277.366 293.591C276.838 293.468 276.182 293.406 275.397 293.406H274.07V303.505H275.397C276.171 303.505 276.847 303.444 277.427 303.32C278.007 303.197 278.538 302.969 279.018 302.635C279.622 302.225 280.076 301.68 280.38 301C280.685 300.315 280.837 299.462 280.837 298.443Z" fill="black"/>
<path d="M183 299L244.339 333.999" stroke="black"/>
<path d="M280.002 257L327.956 285.066" stroke="black"/>
<path d="M234.839 334.003L329.003 279.999" stroke="black"/>
<path d="M239.839 325.999V335.999" stroke="black"/>
<path d="M324 277.5V287.5" stroke="black"/>
<path d="M86.5318 223.866L115.731 206.689" stroke="#525252" stroke-width="3" stroke-linecap="round" stroke-linejoin="bevel"/>
<path d="M54.926 206.002L86.1864 224.21" stroke="#525252" stroke-width="3" stroke-linecap="round" stroke-linejoin="round"/>
<path d="M47.9023 208.092L42.0332 223.023H40.0703L42.0234 218.473L38.0586 208.092H40.041L43.0195 216.168L45.9883 208.092H47.9023Z" fill="#525252"/>
<path d="M106.892 277.769H96.7356V275.972L104.519 264.946H97.0872V263.228H106.697V264.976L98.8254 276.05H106.892V277.769Z" fill="#525252"/>
<path d="M136.186 217.993H133.93L131.283 213.872L128.559 217.993H126.479L130.268 212.583L126.518 207.085H128.774L131.4 211.167L134.096 207.085H136.186L132.416 212.456L136.186 217.993Z" fill="#525252"/>
<path d="M86.1871 224.262C86.1871 224.262 86.1871 260.677 86.1871 263.769" stroke="#525252" stroke-width="3" stroke-linecap="round"/>
<path d="M115.941 213.655L115.307 207.077L109.811 203.454L129.131 198.788L115.941 213.655Z" fill="#525252"/>
<path d="M62.169 203.876L56.4432 206.964L55.3425 213.626L43.2229 197.874L62.169 203.876Z" fill="#525252"/>
<path d="M80.3738 259.493L86.1872 262.413L92.2754 259.493L86.324 278.456L80.3738 259.493Z" fill="#525252"/>
<path d="M151.5 242L151.5 269.5" stroke="#767676"/>
<path d="M277.5 242L277.5 269.313" stroke="#767676"/>
<path d="M152 248.5L157 256.5L163.5 262.5L175.5 269L193.5 274L214.5 276L233.5 274.5L251 270L266.5 261.5L272.5 255.5L277 248.5V270L276 274.5L274 279L271 283L268 285.5L264.5 288.5L260.5 291L251 295.5L232.5 300.5L214.5 301.5L203.5 301L193 299.5L183 297L175 294L166.5 290L159 284L156 280.5L154 277L152.5 273L152 269V248.5Z" fill="url(#paint0_linear)"/>
<path d="M277.5 242.5C277.5 251.473 270.597 259.717 259.168 265.746C247.762 271.763 231.97 275.5 214.5 275.5C197.03 275.5 181.238 271.763 169.832 265.746C158.403 259.717 151.5 251.473 151.5 242.5C151.5 233.527 158.403 225.283 169.832 219.254C181.238 213.237 197.03 209.5 214.5 209.5C231.97 209.5 247.762 213.237 259.168 219.254C270.597 225.283 277.5 233.527 277.5 242.5Z" fill="url(#paint1_linear)" stroke="#767676"/>
<path d="M151.492 269C152.619 277.66 157.201 287.41 179.5 296" stroke="#767676"/>
<path d="M277.5 269C276.373 277.66 271.792 287.41 249.492 296" stroke="#767676"/>
<path d="M178.5 295.5C179.061 296.651 215.623 308.381 249.5 296" stroke="#767676"/>
<line x1="181.5" y1="143" x2="181.5" y2="243" stroke="#767676"/>
<line x1="247.5" y1="143" x2="247.5" y2="243" stroke="#767676"/>
<path d="M182 147.5L185 151L186.5 152.5L189 154L192 155.5L195.5 157L199 158L203 158.5L207 159.5H212H216H220H222.5L228.5 158.5L237 155.5L241 153.5L243.5 151.5L246 149L247 147.5V244L245.5 248L241.5 251L237.5 253.5L233.5 255.5L224 258L218 258.5H214.5H211L203 257.5L195 255.5L187 251L182.5 246.5L182 244V147.5Z" fill="url(#paint2_linear)"/>
<path d="M247.5 143.5C247.5 147.761 243.979 151.758 237.967 154.719C231.987 157.664 223.691 159.5 214.5 159.5C205.309 159.5 197.013 157.664 191.033 154.719C185.021 151.758 181.5 147.761 181.5 143.5C181.5 139.239 185.021 135.242 191.033 132.281C197.013 129.336 205.309 127.5 214.5 127.5C223.691 127.5 231.987 129.336 237.967 132.281C243.979 135.242 247.5 139.239 247.5 143.5Z" fill="url(#paint3_linear)" stroke="#767676"/>
<path d="M181.514 243C180.945 249.084 194.052 259.204 215.513 258.5" stroke="#767676"/>
<path d="M247.501 242.5C248.07 248.584 235.478 259.204 214.017 258.5" stroke="#767676"/>
<path d="M159.75 76.4492L160.613 86.3434L168.75 92.0377L140.001 98.2435L159.75 76.4492Z" fill="#00FF57"/>
<path d="M161.493 85.5062C185.201 71.2676 239.125 72.7952 267.012 147.011" stroke="#00FF57" stroke-width="4" stroke-linecap="round"/>
<path d="M295.266 170.266C294.844 170.375 294.398 170.457 293.93 170.512C293.469 170.566 293.008 170.594 292.547 170.594C291.242 170.594 290.18 170.227 289.359 169.492C288.547 168.758 288.102 167.711 288.023 166.352C287.922 166.352 287.824 166.352 287.73 166.352C287.637 166.352 287.555 166.352 287.484 166.352C286.305 166.352 285.238 166.152 284.285 165.754C283.34 165.348 282.531 164.758 281.859 163.984C281.188 163.211 280.672 162.258 280.312 161.125C279.953 159.992 279.773 158.711 279.773 157.281C279.773 155.812 279.953 154.523 280.312 153.414C280.68 152.305 281.199 151.352 281.871 150.555C282.543 149.781 283.352 149.195 284.297 148.797C285.25 148.391 286.312 148.188 287.484 148.188C288.672 148.188 289.742 148.395 290.695 148.809C291.648 149.223 292.453 149.805 293.109 150.555C293.773 151.32 294.289 152.27 294.656 153.402C295.023 154.535 295.207 155.828 295.207 157.281C295.207 159.539 294.766 161.402 293.883 162.871C293 164.34 291.793 165.336 290.262 165.859C290.301 166.297 290.375 166.688 290.484 167.031C290.602 167.383 290.75 167.66 290.93 167.863C291.141 168.105 291.395 168.281 291.691 168.391C291.996 168.508 292.41 168.566 292.934 168.566C293.246 168.566 293.613 168.516 294.035 168.414C294.457 168.32 294.762 168.234 294.949 168.156H295.266V170.266ZM292.793 157.281C292.793 156.125 292.668 155.102 292.418 154.211C292.168 153.32 291.816 152.582 291.363 151.996C290.902 151.395 290.344 150.945 289.688 150.648C289.039 150.344 288.309 150.191 287.496 150.191C286.652 150.191 285.914 150.34 285.281 150.637C284.656 150.926 284.102 151.379 283.617 151.996C283.156 152.59 282.801 153.336 282.551 154.234C282.309 155.133 282.188 156.148 282.188 157.281C282.188 159.57 282.668 161.324 283.629 162.543C284.59 163.762 285.879 164.371 287.496 164.371C289.113 164.371 290.398 163.762 291.352 162.543C292.312 161.324 292.793 159.57 292.793 157.281ZM307.875 152.91L300.832 170.828H298.477L300.82 165.367L296.062 152.91H298.441L302.016 162.602L305.578 152.91H307.875Z" fill="#00FF57"/>
<path d="M308.723 95H306.402V79.9648L301.855 90.1953H300.449L295.938 79.9648V95H293.77V77.5508H296.934L301.293 87.2656L305.5 77.5508H308.723V95ZM322.375 81.9102L315.332 99.8281H312.977L315.32 94.3672L310.562 81.9102H312.941L316.516 91.6016L320.078 81.9102H322.375Z" fill="#FF0000"/>
<path d="M119.723 94H117.402V78.9648L112.855 89.1953H111.449L106.938 78.9648V94H104.77V76.5508H107.934L112.293 86.2656L116.5 76.5508H119.723V94ZM133.258 94H130.551L127.375 89.0547L124.105 94H121.609L126.156 87.5078L121.656 80.9102H124.363L127.516 85.8086L130.75 80.9102H133.258L128.734 87.3555L133.258 94Z" fill="#00FF57"/>
<path d="M131.266 173.266C130.844 173.375 130.398 173.457 129.93 173.512C129.469 173.566 129.008 173.594 128.547 173.594C127.242 173.594 126.18 173.227 125.359 172.492C124.547 171.758 124.102 170.711 124.023 169.352C123.922 169.352 123.824 169.352 123.73 169.352C123.637 169.352 123.555 169.352 123.484 169.352C122.305 169.352 121.238 169.152 120.285 168.754C119.34 168.348 118.531 167.758 117.859 166.984C117.188 166.211 116.672 165.258 116.312 164.125C115.953 162.992 115.773 161.711 115.773 160.281C115.773 158.812 115.953 157.523 116.312 156.414C116.68 155.305 117.199 154.352 117.871 153.555C118.543 152.781 119.352 152.195 120.297 151.797C121.25 151.391 122.312 151.188 123.484 151.188C124.672 151.188 125.742 151.395 126.695 151.809C127.648 152.223 128.453 152.805 129.109 153.555C129.773 154.32 130.289 155.27 130.656 156.402C131.023 157.535 131.207 158.828 131.207 160.281C131.207 162.539 130.766 164.402 129.883 165.871C129 167.34 127.793 168.336 126.262 168.859C126.301 169.297 126.375 169.688 126.484 170.031C126.602 170.383 126.75 170.66 126.93 170.863C127.141 171.105 127.395 171.281 127.691 171.391C127.996 171.508 128.41 171.566 128.934 171.566C129.246 171.566 129.613 171.516 130.035 171.414C130.457 171.32 130.762 171.234 130.949 171.156H131.266V173.266ZM128.793 160.281C128.793 159.125 128.668 158.102 128.418 157.211C128.168 156.32 127.816 155.582 127.363 154.996C126.902 154.395 126.344 153.945 125.688 153.648C125.039 153.344 124.309 153.191 123.496 153.191C122.652 153.191 121.914 153.34 121.281 153.637C120.656 153.926 120.102 154.379 119.617 154.996C119.156 155.59 118.801 156.336 118.551 157.234C118.309 158.133 118.188 159.148 118.188 160.281C118.188 162.57 118.668 164.324 119.629 165.543C120.59 166.762 121.879 167.371 123.496 167.371C125.113 167.371 126.398 166.762 127.352 165.543C128.312 164.324 128.793 162.57 128.793 160.281ZM143.758 169H141.051L137.875 164.055L134.605 169H132.109L136.656 162.508L132.156 155.91H134.863L138.016 160.809L141.25 155.91H143.758L139.234 162.355L143.758 169Z" fill="#FF0000"/>
<path d="M233.25 51H230.648L222.938 35.9531V51H220.77V33.5508H224.062L231.082 47.3672V33.5508H233.25V51Z" fill="#0500FF"/>
<path d="M192.691 146.262L142.347 178.941" stroke="#FF0000" stroke-width="4" stroke-linecap="round"/>
<path d="M194.637 156.121L193 146.325L184.441 141.287L212.615 132.845L194.637 156.121Z" fill="#FF0000"/>
<path d="M259.734 92.2949L267.872 86.6007L268.734 76.7065L288.483 98.5007L259.734 92.2949Z" fill="#FF0000"/>
<path d="M162 147C161.051 135.389 194.603 54.255 267.016 85.9894" stroke="#FF0000" stroke-width="4" stroke-linecap="round"/>
<path d="M234.188 145L285.357 176.372" stroke="#00FF57" stroke-width="4" stroke-linecap="round"/>
<path d="M213 47V107" stroke="#0500FF" stroke-width="4" stroke-linecap="round" stroke-linejoin="bevel"/>
<path d="M204 104L213 108.2L222 104L213 132L204 104Z" fill="#0500FF"/>
<path d="M242.25 139L234.113 144.694L233.25 154.588L213.501 132.794L242.25 139Z" fill="#00FF57"/>
</g>
<defs>
<linearGradient id="paint0_linear" x1="150" y1="269.5" x2="279.5" y2="270" gradientUnits="userSpaceOnUse">
<stop stop-color="#7A7A7A"/>
<stop offset="0.505208" stop-color="#C6C6C6"/>
<stop offset="1" stop-color="#7A7A7A"/>
</linearGradient>
<linearGradient id="paint1_linear" x1="214.5" y1="209" x2="214.5" y2="276" gradientUnits="userSpaceOnUse">
<stop stop-color="#898787"/>
<stop offset="1" stop-color="#ADADAD"/>
</linearGradient>
<linearGradient id="paint2_linear" x1="178.5" y1="196" x2="250.5" y2="195" gradientUnits="userSpaceOnUse">
<stop stop-color="#7A7A7A"/>
<stop offset="0.5" stop-color="#C6C6C6"/>
<stop offset="1" stop-color="#7A7A7A"/>
</linearGradient>
<linearGradient id="paint3_linear" x1="215" y1="127" x2="215" y2="160" gradientUnits="userSpaceOnUse">
<stop stop-color="#898787"/>
<stop offset="1" stop-color="#BFBFBF"/>
</linearGradient>
</defs>
</svg>
