<svg width="505" height="412" viewBox="0 0 505 412" fill="none" xmlns="http://www.w3.org/2000/svg">
<path d="M391.5 405.49L97.5 405.499" stroke="black"/>
<path d="M252.402 402H250.566V395.789C250.566 395.288 250.54 394.822 250.488 394.393C250.443 393.956 250.352 393.608 250.215 393.348C250.065 393.074 249.857 392.872 249.59 392.742C249.323 392.605 248.958 392.537 248.496 392.537C248.04 392.537 247.568 392.661 247.08 392.908C246.598 393.149 246.126 393.465 245.664 393.855V402H243.828V386.805H245.664V392.303C246.211 391.814 246.751 391.44 247.285 391.18C247.819 390.919 248.382 390.789 248.975 390.789C250.049 390.789 250.889 391.144 251.494 391.854C252.1 392.557 252.402 393.579 252.402 394.92V402Z" fill="#E31B1B"/>
<path d="M100.508 409.071L107.579 402" stroke="black"/>
<path d="M104 382V412" stroke="black"/>
<path d="M381.508 409.071L388.579 402" stroke="black"/>
<line x1="385.008" y1="382" x2="385.008" y2="412" stroke="black"/>
<line x1="55" y1="187" x2="60" y2="187" stroke="black"/>
<line x1="2.18557e-08" y1="187" x2="50" y2="187" stroke="black"/>
<line x1="130" y1="187" x2="180" y2="187" stroke="black"/>
<line x1="195" y1="187" x2="245" y2="187" stroke="black"/>
<line x1="185" y1="187" x2="190" y2="187" stroke="black"/>
<line x1="65" y1="187" x2="115" y2="187" stroke="black"/>
<line x1="120" y1="187" x2="125" y2="187" stroke="black"/>
<line x1="260" y1="187" x2="310" y2="187" stroke="black"/>
<line x1="250" y1="187" x2="255" y2="187" stroke="black"/>
<line x1="325" y1="187" x2="375" y2="187" stroke="black"/>
<line x1="315" y1="187" x2="320" y2="187" stroke="black"/>
<line x1="390" y1="187" x2="440" y2="187" stroke="black"/>
<line x1="380" y1="187" x2="385" y2="187" stroke="black"/>
<line x1="455" y1="187" x2="505" y2="187" stroke="black"/>
<line x1="445" y1="187" x2="450" y2="187" stroke="black"/>
<path d="M248.5 378L248.5 327.5" stroke="black"/>
<line x1="248.5" y1="312.5" x2="248.5" y2="262.5" stroke="black"/>
<line x1="248.5" y1="322.5" x2="248.5" y2="317.5" stroke="black"/>
<line x1="248.5" y1="247.5" x2="248.5" y2="197.5" stroke="black"/>
<line x1="248.5" y1="257.5" x2="248.5" y2="252.5" stroke="black"/>
<line x1="248.5" y1="182.5" x2="248.5" y2="132.5" stroke="black"/>
<line x1="248.5" y1="192.5" x2="248.5" y2="187.5" stroke="black"/>
<line x1="248.5" y1="117.5" x2="248.5" y2="67.5" stroke="black"/>
<line x1="248.5" y1="127.5" x2="248.5" y2="122.5" stroke="black"/>
<line x1="248.5" y1="52.5" x2="248.5" y2="2.5" stroke="black"/>
<line x1="248.5" y1="62.5" x2="248.5" y2="57.5" stroke="black"/>
<rect x="24" y="20.5" width="160" height="79" fill="#D5D5D5" stroke="black"/>
<rect x="24" y="273.5" width="159" height="79" fill="#D4D4D4" stroke="black"/>
<rect x="44" y="0.5" width="11" height="20" fill="#ABABAB" stroke="black"/>
<rect x="44" y="99.5" width="11" height="174" fill="#ABABAB" stroke="black"/>
<rect x="153" y="99.5" width="11" height="174" fill="#ABABAB" stroke="black"/>
<rect x="153" y="0.5" width="11" height="20" fill="#ABABAB" stroke="black"/>
<rect x="44" y="352.5" width="11" height="20" fill="#ABABAB" stroke="black"/>
<rect x="153" y="352.5" width="11" height="20" fill="#ABABAB" stroke="black"/>
<path d="M152.776 127.5H113L109.5 133.5V187H104H98.5V133.5L94.5 127.5H55V113.5L152.5 113.5" stroke="black"/>
<path d="M55.0016 247H94.5L98.5 241V187H104H109.5V241L113.691 247H153V261H55.2773" stroke="black"/>
<circle cx="73.5" cy="60" r="14.5" fill="#C1C1C1" stroke="black"/>
<path d="M69 53L65.5 60.2593L69 67H71.5H78L81.5 60.2593L78 53H73.5H69Z" fill="#CCCCCC" stroke="black"/>
<circle cx="73.5" cy="60" r="4.5" fill="#797878" stroke="black"/>
<circle cx="134.5" cy="60" r="14.5" fill="#C1C1C1" stroke="black"/>
<path d="M130 53L126.5 60.2593L130 67H132.5H139L142.5 60.2593L139 53H134.5H130Z" fill="#CCCCCC" stroke="black"/>
<circle cx="134.5" cy="60" r="4.5" fill="#797878" stroke="black"/>
<path d="M106.5 60.25L156.5 60.25" stroke="black" stroke-width="0.5"/>
<path d="M41.5 60.25L91.5 60.25" stroke="black" stroke-width="0.5"/>
<path d="M96.5 60.25L101.5 60.25" stroke="black" stroke-width="0.5"/>
<circle cx="73.5" cy="313" r="14.5" fill="#C1C1C1" stroke="black"/>
<path d="M69 306L65.5 313.259L69 320H71.5H78L81.5 313.259L78 306H73.5H69Z" fill="#CCCCCC" stroke="black"/>
<circle cx="73.5" cy="313" r="4.5" fill="#797878" stroke="black"/>
<circle cx="134.5" cy="313" r="14.5" fill="#C1C1C1" stroke="black"/>
<path d="M130 306L126.5 313.259L130 320H132.5H139L142.5 313.259L139 306H134.5H130Z" fill="#CCCCCC" stroke="black"/>
<circle cx="134.5" cy="313" r="4.5" fill="#797878" stroke="black"/>
<path d="M106.5 313.25L156.5 313.25" stroke="black" stroke-width="0.5"/>
<path d="M134.5 99L134.5 149" stroke="black" stroke-width="0.5"/>
<path d="M134.5 164L134.5 214" stroke="black" stroke-width="0.5"/>
<path d="M134.5 154L134.5 159" stroke="black" stroke-width="0.5"/>
<path d="M134.5 34L134.5 84" stroke="black" stroke-width="0.5"/>
<path d="M134.5 89L134.5 94" stroke="black" stroke-width="0.5"/>
<path d="M134.5 229L134.5 279" stroke="black" stroke-width="0.5"/>
<path d="M134.5 219L134.5 224" stroke="black" stroke-width="0.5"/>
<path d="M134.5 294L134.5 344" stroke="black" stroke-width="0.5"/>
<path d="M134.5 284L134.5 289" stroke="black" stroke-width="0.5"/>
<path d="M73.5 99L73.5 149" stroke="black" stroke-width="0.5"/>
<path d="M73.5 164L73.5 214" stroke="black" stroke-width="0.5"/>
<path d="M73.5 154L73.5 159" stroke="black" stroke-width="0.5"/>
<path d="M73.5 34L73.5 84" stroke="black" stroke-width="0.5"/>
<path d="M73.5 89L73.5 94" stroke="black" stroke-width="0.5"/>
<path d="M73.5 229L73.5 279" stroke="black" stroke-width="0.5"/>
<path d="M73.5 219L73.5 224" stroke="black" stroke-width="0.5"/>
<path d="M73.5 294L73.5 344" stroke="black" stroke-width="0.5"/>
<path d="M73.5 284L73.5 289" stroke="black" stroke-width="0.5"/>
<path d="M41.5 313.25L91.5 313.25" stroke="black" stroke-width="0.5"/>
<path d="M99 133.5H109V241.232H99V133.5Z" fill="#848484"/>
<rect x="55.5" y="114" width="97" height="13" fill="#848484"/>
<line x1="104" y1="58" x2="104" y2="63" stroke="black"/>
<line x1="104" y1="3" x2="104" y2="53" stroke="black"/>
<line x1="104" y1="133" x2="104" y2="183" stroke="black"/>
<line x1="104" y1="198" x2="104" y2="248" stroke="black"/>
<line x1="104" y1="188" x2="104" y2="193" stroke="black"/>
<line x1="104" y1="68" x2="104" y2="118" stroke="black"/>
<line x1="104" y1="123" x2="104" y2="128" stroke="black"/>
<line x1="104" y1="263" x2="104" y2="313" stroke="black"/>
<line x1="104" y1="253" x2="104" y2="258" stroke="black"/>
<line x1="104" y1="328" x2="104" y2="378" stroke="black"/>
<line x1="104" y1="318" x2="104" y2="323" stroke="black"/>
<path d="M94.7695 127H112.727L108.981 133.5H99.0013L94.7695 127Z" fill="#848484"/>
<path d="M152.5 260.5L55.5 261V247.5H152.5V260.5Z" fill="#848484"/>
<path d="M113.457 247.5H94.5L99 241H109L113.457 247.5Z" fill="#848484"/>
<rect x="305" y="20.5" width="160" height="79" fill="#D5D5D5" stroke="black"/>
<rect x="305" y="273.5" width="159" height="79" fill="#D4D4D4" stroke="black"/>
<rect x="325" y="0.5" width="11" height="20" fill="#ABABAB" stroke="black"/>
<rect x="325" y="99.5" width="11" height="174" fill="#ABABAB" stroke="black"/>
<rect x="434" y="99.5" width="11" height="174" fill="#ABABAB" stroke="black"/>
<rect x="434" y="0.5" width="11" height="20" fill="#ABABAB" stroke="black"/>
<rect x="325" y="352.5" width="11" height="20" fill="#ABABAB" stroke="black"/>
<rect x="434" y="352.5" width="11" height="20" fill="#ABABAB" stroke="black"/>
<path d="M433.776 127.5H394L390.5 133.5V187H385H379.5V133.5L375.5 127.5H336V113.5L433.5 113.5" stroke="black"/>
<path d="M336.002 247H375.5L379.5 241V187H385H390.5V241L394.691 247H434V261H336.277" stroke="black"/>
<circle cx="354.5" cy="60" r="14.5" fill="#C1C1C1" stroke="black"/>
<path d="M350 53L346.5 60.2593L350 67H352.5H359L362.5 60.2593L359 53H354.5H350Z" fill="#CCCCCC" stroke="black"/>
<circle cx="354.5" cy="60" r="4.5" fill="#797878" stroke="black"/>
<circle cx="415.5" cy="60" r="14.5" fill="#C1C1C1" stroke="black"/>
<path d="M411 53L407.5 60.2593L411 67H413.5H420L423.5 60.2593L420 53H415.5H411Z" fill="#CCCCCC" stroke="black"/>
<circle cx="415.5" cy="60" r="4.5" fill="#797878" stroke="black"/>
<path d="M387.5 60.25L437.5 60.25" stroke="black" stroke-width="0.5"/>
<path d="M322.5 60.25L372.5 60.25" stroke="black" stroke-width="0.5"/>
<path d="M377.5 60.25L382.5 60.25" stroke="black" stroke-width="0.5"/>
<circle cx="354.5" cy="313" r="14.5" fill="#C1C1C1" stroke="black"/>
<path d="M350 306L346.5 313.259L350 320H352.5H359L362.5 313.259L359 306H354.5H350Z" fill="#CCCCCC" stroke="black"/>
<circle cx="354.5" cy="313" r="4.5" fill="#797878" stroke="black"/>
<circle cx="415.5" cy="313" r="14.5" fill="#C1C1C1" stroke="black"/>
<path d="M411 306L407.5 313.259L411 320H413.5H420L423.5 313.259L420 306H415.5H411Z" fill="#CCCCCC" stroke="black"/>
<circle cx="415.5" cy="313" r="4.5" fill="#797878" stroke="black"/>
<path d="M387.5 313.25L437.5 313.25" stroke="black" stroke-width="0.5"/>
<path d="M415.5 99L415.5 149" stroke="black" stroke-width="0.5"/>
<path d="M415.5 164L415.5 214" stroke="black" stroke-width="0.5"/>
<path d="M415.5 154L415.5 159" stroke="black" stroke-width="0.5"/>
<path d="M415.5 34L415.5 84" stroke="black" stroke-width="0.5"/>
<path d="M415.5 89L415.5 94" stroke="black" stroke-width="0.5"/>
<path d="M415.5 229L415.5 279" stroke="black" stroke-width="0.5"/>
<path d="M415.5 219L415.5 224" stroke="black" stroke-width="0.5"/>
<path d="M415.5 294L415.5 344" stroke="black" stroke-width="0.5"/>
<path d="M415.5 284L415.5 289" stroke="black" stroke-width="0.5"/>
<path d="M354.5 99L354.5 149" stroke="black" stroke-width="0.5"/>
<path d="M354.5 164L354.5 214" stroke="black" stroke-width="0.5"/>
<path d="M354.5 154L354.5 159" stroke="black" stroke-width="0.5"/>
<path d="M354.5 34L354.5 84" stroke="black" stroke-width="0.5"/>
<path d="M354.5 89L354.5 94" stroke="black" stroke-width="0.5"/>
<path d="M354.5 229L354.5 279" stroke="black" stroke-width="0.5"/>
<path d="M354.5 219L354.5 224" stroke="black" stroke-width="0.5"/>
<path d="M354.5 294L354.5 344" stroke="black" stroke-width="0.5"/>
<path d="M354.5 284L354.5 289" stroke="black" stroke-width="0.5"/>
<path d="M322.5 313.25L372.5 313.25" stroke="black" stroke-width="0.5"/>
<path d="M380 133.5H390V241.232H380V133.5Z" fill="#848484"/>
<rect x="336.5" y="114" width="97" height="13" fill="#848484"/>
<line x1="385" y1="58" x2="385" y2="63" stroke="black"/>
<line x1="385" y1="3" x2="385" y2="53" stroke="black"/>
<line x1="385" y1="133" x2="385" y2="183" stroke="black"/>
<line x1="385" y1="198" x2="385" y2="248" stroke="black"/>
<line x1="385" y1="188" x2="385" y2="193" stroke="black"/>
<line x1="385" y1="68" x2="385" y2="118" stroke="black"/>
<line x1="385" y1="123" x2="385" y2="128" stroke="black"/>
<line x1="385" y1="263" x2="385" y2="313" stroke="black"/>
<line x1="385" y1="253" x2="385" y2="258" stroke="black"/>
<line x1="385" y1="328" x2="385" y2="378" stroke="black"/>
<line x1="385" y1="318" x2="385" y2="323" stroke="black"/>
<path d="M375.77 127H393.727L389.981 133.5H380.001L375.77 127Z" fill="#848484"/>
<path d="M433.5 260.5L336.5 261V247.5H433.5V260.5Z" fill="#848484"/>
<path d="M394.457 247.5H375.5L380 241H390L394.457 247.5Z" fill="#848484"/>
</svg>
