<svg width="410" height="468" viewBox="0 0 410 468" fill="none" xmlns="http://www.w3.org/2000/svg">
<path d="M205.5 290.5L239.338 309V337.271H236.5L232.837 331.5L205.5 290.5Z" fill="#B6B6B6"/>
<path d="M239.5 337.271V309L273 291L242.289 337.271H239.5Z" fill="#909090"/>
<path d="M239.228 168.502L253.728 177.002L273.728 188.002L258.5 197L257.5 193L255 202L254.5 199L239.5 207.5L223.5 198.5V193.5L219 200V196L205.228 188.002L239.228 168.502Z" fill="#AEAEAE"/>
<path d="M204.742 187.782L219 196V200.5L223 194L223.5 198.5L239.539 207.898L239.5 308.5L224 300L219.5 297.5L204.742 289.501V187.782Z" fill="#B6B6B6"/>
<path d="M239.728 208.001L254 199.5L255 203L257.5 194.5L258.5 197L273.415 189.001V232.127V290.5L258.728 298.501L254.228 301.001L239.728 308.5V208.001Z" fill="#909090"/>
<path d="M239.228 168.001L204.728 187.919" stroke="#767676" stroke-linecap="round"/>
<path d="M273.5 290.5L239.5 309" stroke="#767676" stroke-linecap="round"/>
<path d="M273.728 188.501L239.228 168" stroke="#767676" stroke-linecap="round"/>
<path d="M204.728 188.004L204.728 289.591" stroke="#767676" stroke-linecap="round"/>
<path d="M239.524 208.197L239.524 337.5" stroke="#767676" stroke-linecap="round"/>
<path d="M273.728 188.501L273.728 290.634" stroke="#767676" stroke-linecap="round"/>
<path d="M204.482 188.436C204.242 188.301 204.157 187.996 204.293 187.755C204.428 187.515 204.733 187.43 204.974 187.565L204.482 188.436ZM239.729 207.25C239.969 207.385 240.055 207.69 239.919 207.931C239.784 208.171 239.479 208.257 239.238 208.121L239.729 207.25ZM218.983 200.222L219.407 200.487L218.483 201.962L218.483 200.222L218.983 200.222ZM223.483 198.685L223.238 199.121L222.983 198.978L222.983 198.685L223.483 198.685ZM218.983 196.04L219.229 195.605L219.483 195.748L219.483 196.04L218.983 196.04ZM223.483 193.039L223.059 192.774L223.983 191.299L223.983 193.039L223.483 193.039ZM223.728 198.249L239.729 207.25L239.238 208.121L223.238 199.121L223.728 198.249ZM204.974 187.565L219.229 195.605L218.738 196.476L204.482 188.436L204.974 187.565ZM219.483 196.04L219.483 200.222L218.483 200.222L218.483 196.04L219.483 196.04ZM218.559 199.957L223.059 192.774L223.907 193.305L219.407 200.487L218.559 199.957ZM223.983 193.039L223.983 198.685L222.983 198.685L222.983 193.039L223.983 193.039Z" fill="#767676"/>
<path d="M239.861 208.164C239.623 208.303 239.316 208.224 239.177 207.985C239.037 207.747 239.117 207.441 239.355 207.301L239.861 208.164ZM273.253 188.065C273.494 187.929 273.799 188.013 273.935 188.253C274.071 188.494 273.987 188.799 273.746 188.935L273.253 188.065ZM255.16 202.354L255.647 202.468L255.207 204.335L254.679 202.491L255.16 202.354ZM258.5 197L258.746 197.435L258.204 197.743L258.022 197.146L258.5 197ZM254.243 199.146L253.99 198.714L254.546 198.388L254.723 199.008L254.243 199.146ZM257.327 193.16L256.841 193.045L257.265 191.244L257.806 193.014L257.327 193.16ZM258.253 196.565L273.253 188.065L273.746 188.935L258.746 197.435L258.253 196.565ZM239.355 207.301L253.99 198.714L254.496 199.577L239.861 208.164L239.355 207.301ZM254.723 199.008L255.641 202.216L254.679 202.491L253.762 199.283L254.723 199.008ZM254.674 202.239L256.841 193.045L257.814 193.274L255.647 202.468L254.674 202.239ZM257.806 193.014L258.978 196.854L258.022 197.146L256.849 193.306L257.806 193.014Z" fill="#767676"/>
<path d="M239.228 52.502L253.728 61.002L273.728 72.002L239.728 92.002L205.228 72.002L239.228 52.502Z" fill="#AEAEAE"/>
<path d="M204.742 71.7822L239.539 91.8978L239.228 193.001L223.728 184.501V178.501L219.228 185.001V182.001L204.742 173.501V71.7822Z" fill="#B6B6B6"/>
<path d="M239.728 92.001L273.415 73.001V116.127V174L258.728 182.501L257.228 178.001L255.228 187.001L254.228 185.001L239.728 194.001V92.001Z" fill="#909090"/>
<path d="M239.228 52.001L204.728 71.9194" stroke="#767676" stroke-linecap="round"/>
<path d="M273.728 72.5017L239.525 92.1475" stroke="#767676" stroke-linecap="round"/>
<line x1="0.5" y1="-0.5" x2="39.9618" y2="-0.5" transform="matrix(-0.866025 -0.5 -0.5 0.866025 239.376 92.5527)" stroke="#767676" stroke-linecap="round"/>
<path d="M273.728 72.5008L239.228 52.0004" stroke="#767676" stroke-linecap="round"/>
<path d="M204.728 72.0039L204.728 174.001" stroke="#767676" stroke-linecap="round"/>
<path d="M239.525 92.1973L239.525 193.718" stroke="#767676" stroke-linecap="round"/>
<path d="M273.728 72.501L273.728 173.807" stroke="#767676" stroke-linecap="round"/>
<path d="M204.482 174.436C204.242 174.301 204.157 173.996 204.293 173.755C204.428 173.515 204.733 173.43 204.974 173.565L204.482 174.436ZM239.729 193.25C239.969 193.385 240.055 193.69 239.919 193.931C239.784 194.171 239.479 194.257 239.238 194.121L239.729 193.25ZM218.983 186.222L219.407 186.487L218.483 187.962L218.483 186.222L218.983 186.222ZM223.483 184.685L223.238 185.121L222.983 184.978L222.983 184.685L223.483 184.685ZM218.983 182.04L219.229 181.605L219.483 181.748L219.483 182.04L218.983 182.04ZM223.483 179.039L223.059 178.774L223.983 177.299L223.983 179.039L223.483 179.039ZM223.728 184.249L239.729 193.25L239.238 194.121L223.238 185.121L223.728 184.249ZM204.974 173.565L219.229 181.605L218.738 182.476L204.482 174.436L204.974 173.565ZM219.483 182.04L219.483 186.222L218.483 186.222L218.483 182.04L219.483 182.04ZM218.559 185.957L223.059 178.774L223.907 179.305L219.407 186.487L218.559 185.957ZM223.983 179.039L223.983 184.685L222.983 184.685L222.983 179.039L223.983 179.039Z" fill="#767676"/>
<path d="M239.861 194.164C239.623 194.303 239.316 194.224 239.177 193.985C239.037 193.747 239.117 193.441 239.355 193.301L239.861 194.164ZM273.481 173.566C273.721 173.43 274.027 173.514 274.163 173.754C274.299 173.995 274.215 174.3 273.974 174.436L273.481 173.566ZM255.16 188.354L255.647 188.468L255.207 190.335L254.679 188.491L255.16 188.354ZM263.704 179.683L263.454 179.25L263.457 179.248L263.704 179.683ZM254.243 185.146L253.99 184.714L254.546 184.388L254.723 185.008L254.243 185.146ZM257.327 179.16L256.841 179.045L257.258 177.274L257.804 179.01L257.327 179.16ZM258.447 182.718L258.697 183.151L258.158 183.463L257.971 182.868L258.447 182.718ZM261.251 181.1L261.501 181.533L261.251 181.1ZM263.457 179.248L273.481 173.566L273.974 174.436L263.95 180.118L263.457 179.248ZM239.355 193.301L253.99 184.714L254.496 185.577L239.861 194.164L239.355 193.301ZM254.723 185.008L255.641 188.216L254.679 188.491L253.762 185.283L254.723 185.008ZM254.674 188.239L256.841 179.045L257.814 179.274L255.647 188.468L254.674 188.239ZM257.804 179.01L258.924 182.568L257.971 182.868L256.851 179.31L257.804 179.01ZM258.197 182.285L261.001 180.667L261.501 181.533L258.697 183.151L258.197 182.285ZM261.001 180.667L263.454 179.25L263.954 180.116L261.501 181.533L261.001 180.667Z" fill="#767676"/>
<path d="M204.756 289.744L236.5 337.5" stroke="#767676" stroke-linecap="round"/>
<path d="M205 290L239.5 309" stroke="#767676" stroke-linecap="round"/>
<path d="M273.5 291L242.5 337.5" stroke="#767676" stroke-linecap="round"/>
<path d="M236.5 337.5H242.5" stroke="#767676" stroke-linecap="round"/>
<path d="M95.5 354.5L129.338 373V401.271H126.5L122.837 395.5L95.5 354.5Z" fill="#B6B6B6"/>
<path d="M129.5 401.271V373L163 355L132.289 401.271H129.5Z" fill="#909090"/>
<path d="M129.228 232.502L143.728 241.002L163.728 252.002L148.5 261L147.5 257L145 266L144.5 263L129.5 271.5L113.5 262.5V257.5L109 264V260L95.228 252.002L129.228 232.502Z" fill="#AEAEAE"/>
<path d="M94.7417 251.782L109 260V264.5L113 258L113.5 262.5L129.539 271.898L129.5 372.5L114 364L109.5 361.5L94.7417 353.501V251.782Z" fill="#B6B6B6"/>
<path d="M129.728 272.001L144 263.5L145 267L147.5 258.5L148.5 261L163.415 253.001V296.127V354.5L148.728 362.501L144.228 365.001L129.728 372.5V272.001Z" fill="#909090"/>
<path d="M129.228 232.001L94.7277 251.919" stroke="#767676" stroke-linecap="round"/>
<path d="M163.5 354.5L129.5 373" stroke="#767676" stroke-linecap="round"/>
<path d="M163.728 252.501L129.228 232" stroke="#767676" stroke-linecap="round"/>
<path d="M94.728 252.004L94.728 353.591" stroke="#767676" stroke-linecap="round"/>
<path d="M129.524 272.197L129.524 401.5" stroke="#767676" stroke-linecap="round"/>
<path d="M163.728 252.501L163.728 354.634" stroke="#767676" stroke-linecap="round"/>
<path d="M94.4824 252.436C94.2419 252.301 94.1569 251.996 94.2925 251.755C94.4282 251.515 94.7331 251.43 94.9736 251.565L94.4824 252.436ZM129.729 271.25C129.969 271.385 130.055 271.69 129.919 271.931C129.784 272.171 129.479 272.257 129.238 272.121L129.729 271.25ZM108.983 264.222L109.407 264.487L108.483 265.962L108.483 264.222L108.983 264.222ZM113.483 262.685L113.238 263.121L112.983 262.978L112.983 262.685L113.483 262.685ZM108.983 260.04L109.229 259.605L109.483 259.748L109.483 260.04L108.983 260.04ZM113.483 257.039L113.059 256.774L113.983 255.299L113.983 257.039L113.483 257.039ZM113.728 262.249L129.729 271.25L129.238 272.121L113.238 263.121L113.728 262.249ZM94.9736 251.565L109.229 259.605L108.738 260.476L94.4824 252.436L94.9736 251.565ZM109.483 260.04L109.483 264.222L108.483 264.222L108.483 260.04L109.483 260.04ZM108.559 263.957L113.059 256.774L113.907 257.305L109.407 264.487L108.559 263.957ZM113.983 257.039L113.983 262.685L112.983 262.685L112.983 257.039L113.983 257.039Z" fill="#767676"/>
<path d="M129.861 272.164C129.623 272.303 129.316 272.224 129.177 271.985C129.037 271.747 129.117 271.441 129.355 271.301L129.861 272.164ZM163.253 252.065C163.494 251.929 163.799 252.013 163.935 252.253C164.071 252.494 163.987 252.799 163.746 252.935L163.253 252.065ZM145.16 266.354L145.647 266.468L145.207 268.335L144.679 266.491L145.16 266.354ZM148.5 261L148.746 261.435L148.204 261.743L148.022 261.146L148.5 261ZM144.243 263.146L143.99 262.714L144.546 262.388L144.723 263.008L144.243 263.146ZM147.327 257.16L146.841 257.045L147.265 255.244L147.806 257.014L147.327 257.16ZM148.253 260.565L163.253 252.065L163.746 252.935L148.746 261.435L148.253 260.565ZM129.355 271.301L143.99 262.714L144.496 263.577L129.861 272.164L129.355 271.301ZM144.723 263.008L145.641 266.216L144.679 266.491L143.762 263.283L144.723 263.008ZM144.674 266.239L146.841 257.045L147.814 257.274L145.647 266.468L144.674 266.239ZM147.806 257.014L148.978 260.854L148.022 261.146L146.849 257.306L147.806 257.014Z" fill="#767676"/>
<path d="M129.228 116.502L143.728 125.002L163.728 136.002L129.728 156.002L95.228 136.002L129.228 116.502Z" fill="#AEAEAE"/>
<path d="M94.7417 135.782L129.539 155.898L129.228 257.001L113.728 248.501V242.501L109.228 249.001V246.001L94.7417 237.501V135.782Z" fill="#B6B6B6"/>
<path d="M129.728 156.001L163.415 137.001V180.127V238L148.728 246.501L147.228 242.001L145.228 251.001L144.228 249.001L129.728 258.001V156.001Z" fill="#909090"/>
<path d="M129.228 116.001L94.7277 135.919" stroke="#767676" stroke-linecap="round"/>
<path d="M163.728 136.502L129.525 156.148" stroke="#767676" stroke-linecap="round"/>
<line x1="0.5" y1="-0.5" x2="39.9618" y2="-0.5" transform="matrix(-0.866025 -0.5 -0.5 0.866025 129.376 156.553)" stroke="#767676" stroke-linecap="round"/>
<path d="M163.728 136.501L129.228 116" stroke="#767676" stroke-linecap="round"/>
<path d="M94.7279 136.004L94.728 238.001" stroke="#767676" stroke-linecap="round"/>
<path d="M129.525 156.197L129.525 257.718" stroke="#767676" stroke-linecap="round"/>
<path d="M163.728 136.501L163.728 237.807" stroke="#767676" stroke-linecap="round"/>
<path d="M94.4824 238.436C94.2419 238.301 94.1569 237.996 94.2925 237.755C94.4282 237.515 94.7331 237.43 94.9736 237.565L94.4824 238.436ZM129.729 257.25C129.969 257.385 130.055 257.69 129.919 257.931C129.784 258.171 129.479 258.257 129.238 258.121L129.729 257.25ZM108.983 250.222L109.407 250.487L108.483 251.962L108.483 250.222L108.983 250.222ZM113.483 248.685L113.238 249.121L112.983 248.978L112.983 248.685L113.483 248.685ZM108.983 246.04L109.229 245.605L109.483 245.748L109.483 246.04L108.983 246.04ZM113.483 243.039L113.059 242.774L113.983 241.299L113.983 243.039L113.483 243.039ZM113.728 248.249L129.729 257.25L129.238 258.121L113.238 249.121L113.728 248.249ZM94.9736 237.565L109.229 245.605L108.738 246.476L94.4824 238.436L94.9736 237.565ZM109.483 246.04L109.483 250.222L108.483 250.222L108.483 246.04L109.483 246.04ZM108.559 249.957L113.059 242.774L113.907 243.305L109.407 250.487L108.559 249.957ZM113.983 243.039L113.983 248.685L112.983 248.685L112.983 243.039L113.983 243.039Z" fill="#767676"/>
<path d="M129.861 258.164C129.623 258.303 129.316 258.224 129.177 257.985C129.037 257.747 129.117 257.441 129.355 257.301L129.861 258.164ZM163.481 237.566C163.721 237.43 164.027 237.514 164.163 237.754C164.299 237.995 164.215 238.3 163.974 238.436L163.481 237.566ZM145.16 252.354L145.647 252.468L145.207 254.335L144.679 252.491L145.16 252.354ZM153.704 243.683L153.454 243.25L153.457 243.248L153.704 243.683ZM144.243 249.146L143.99 248.714L144.546 248.388L144.723 249.008L144.243 249.146ZM147.327 243.16L146.841 243.045L147.258 241.274L147.804 243.01L147.327 243.16ZM148.447 246.718L148.697 247.151L148.158 247.463L147.971 246.868L148.447 246.718ZM151.251 245.1L151.501 245.533L151.251 245.1ZM153.457 243.248L163.481 237.566L163.974 238.436L153.95 244.118L153.457 243.248ZM129.355 257.301L143.99 248.714L144.496 249.577L129.861 258.164L129.355 257.301ZM144.723 249.008L145.641 252.216L144.679 252.491L143.762 249.283L144.723 249.008ZM144.674 252.239L146.841 243.045L147.814 243.274L145.647 252.468L144.674 252.239ZM147.804 243.01L148.924 246.568L147.971 246.868L146.851 243.31L147.804 243.01ZM148.197 246.285L151.001 244.667L151.501 245.533L148.697 247.151L148.197 246.285ZM151.001 244.667L153.454 243.25L153.954 244.116L151.501 245.533L151.001 244.667Z" fill="#767676"/>
<path d="M94.7564 353.744L126.5 401.5" stroke="#767676" stroke-linecap="round"/>
<path d="M95.0001 354L129.5 373" stroke="#767676" stroke-linecap="round"/>
<path d="M163.5 355L132.5 401.5" stroke="#767676" stroke-linecap="round"/>
<path d="M126.5 401.5H132.5" stroke="#767676" stroke-linecap="round"/>
<path d="M315.5 354.5L349.338 373V401.271H346.5L342.837 395.5L315.5 354.5Z" fill="#B6B6B6"/>
<path d="M349.5 401.271V373L383 355L352.289 401.271H349.5Z" fill="#909090"/>
<path d="M349.228 232.502L363.728 241.002L383.728 252.002L368.5 261L367.5 257L365 266L364.5 263L349.5 271.5L333.5 262.5V257.5L329 264V260L315.228 252.002L349.228 232.502Z" fill="#AEAEAE"/>
<path d="M314.742 251.782L329 260V264.5L333 258L333.5 262.5L349.539 271.898L349.5 372.5L334 364L329.5 361.5L314.742 353.501V251.782Z" fill="#B6B6B6"/>
<path d="M349.728 272.001L364 263.5L365 267L367.5 258.5L368.5 261L383.415 253.001V296.127V354.5L368.728 362.501L364.228 365.001L349.728 372.5V272.001Z" fill="#909090"/>
<path d="M349.228 232.001L314.728 251.919" stroke="#767676" stroke-linecap="round"/>
<path d="M383.5 354.5L349.5 373" stroke="#767676" stroke-linecap="round"/>
<path d="M383.728 252.501L349.228 232" stroke="#767676" stroke-linecap="round"/>
<path d="M314.728 252.004L314.728 353.591" stroke="#767676" stroke-linecap="round"/>
<path d="M349.524 272.197L349.524 401.5" stroke="#767676" stroke-linecap="round"/>
<path d="M383.728 252.501L383.728 354.634" stroke="#767676" stroke-linecap="round"/>
<path d="M314.482 252.436C314.242 252.301 314.157 251.996 314.293 251.755C314.428 251.515 314.733 251.43 314.974 251.565L314.482 252.436ZM349.729 271.25C349.969 271.385 350.055 271.69 349.919 271.931C349.784 272.171 349.479 272.257 349.238 272.121L349.729 271.25ZM328.983 264.222L329.407 264.487L328.483 265.962L328.483 264.222L328.983 264.222ZM333.483 262.685L333.238 263.121L332.983 262.978L332.983 262.685L333.483 262.685ZM328.983 260.04L329.229 259.605L329.483 259.748L329.483 260.04L328.983 260.04ZM333.483 257.039L333.059 256.774L333.983 255.299L333.983 257.039L333.483 257.039ZM333.728 262.249L349.729 271.25L349.238 272.121L333.238 263.121L333.728 262.249ZM314.974 251.565L329.229 259.605L328.738 260.476L314.482 252.436L314.974 251.565ZM329.483 260.04L329.483 264.222L328.483 264.222L328.483 260.04L329.483 260.04ZM328.559 263.957L333.059 256.774L333.907 257.305L329.407 264.487L328.559 263.957ZM333.983 257.039L333.983 262.685L332.983 262.685L332.983 257.039L333.983 257.039Z" fill="#767676"/>
<path d="M349.861 272.164C349.623 272.303 349.316 272.224 349.177 271.985C349.037 271.747 349.117 271.441 349.355 271.301L349.861 272.164ZM383.253 252.065C383.494 251.929 383.799 252.013 383.935 252.253C384.071 252.494 383.987 252.799 383.746 252.935L383.253 252.065ZM365.16 266.354L365.647 266.468L365.207 268.335L364.679 266.491L365.16 266.354ZM368.5 261L368.746 261.435L368.204 261.743L368.022 261.146L368.5 261ZM364.243 263.146L363.99 262.714L364.546 262.388L364.723 263.008L364.243 263.146ZM367.327 257.16L366.841 257.045L367.265 255.244L367.806 257.014L367.327 257.16ZM368.253 260.565L383.253 252.065L383.746 252.935L368.746 261.435L368.253 260.565ZM349.355 271.301L363.99 262.714L364.496 263.577L349.861 272.164L349.355 271.301ZM364.723 263.008L365.641 266.216L364.679 266.491L363.762 263.283L364.723 263.008ZM364.674 266.239L366.841 257.045L367.814 257.274L365.647 266.468L364.674 266.239ZM367.806 257.014L368.978 260.854L368.022 261.146L366.849 257.306L367.806 257.014Z" fill="#767676"/>
<path d="M349.228 116.502L363.728 125.002L383.728 136.002L349.728 156.002L315.228 136.002L349.228 116.502Z" fill="#AEAEAE"/>
<path d="M314.742 135.782L349.539 155.898L349.228 257.001L333.728 248.501V242.501L329.228 249.001V246.001L314.742 237.501V135.782Z" fill="#B6B6B6"/>
<path d="M349.728 156.001L383.415 137.001V180.127V238L368.728 246.501L367.228 242.001L365.228 251.001L364.228 249.001L349.728 258.001V156.001Z" fill="#909090"/>
<path d="M349.228 116.001L314.728 135.919" stroke="#767676" stroke-linecap="round"/>
<path d="M383.728 136.502L349.525 156.148" stroke="#767676" stroke-linecap="round"/>
<line x1="0.5" y1="-0.5" x2="39.9618" y2="-0.5" transform="matrix(-0.866025 -0.5 -0.5 0.866025 349.376 156.553)" stroke="#767676" stroke-linecap="round"/>
<path d="M383.728 136.501L349.228 116" stroke="#767676" stroke-linecap="round"/>
<path d="M314.728 136.004L314.728 238.001" stroke="#767676" stroke-linecap="round"/>
<path d="M349.525 156.197L349.525 257.718" stroke="#767676" stroke-linecap="round"/>
<path d="M383.728 136.501L383.728 237.807" stroke="#767676" stroke-linecap="round"/>
<path d="M314.482 238.436C314.242 238.301 314.157 237.996 314.293 237.755C314.428 237.515 314.733 237.43 314.974 237.565L314.482 238.436ZM349.729 257.25C349.969 257.385 350.055 257.69 349.919 257.931C349.784 258.171 349.479 258.257 349.238 258.121L349.729 257.25ZM328.983 250.222L329.407 250.487L328.483 251.962L328.483 250.222L328.983 250.222ZM333.483 248.685L333.238 249.121L332.983 248.978L332.983 248.685L333.483 248.685ZM328.983 246.04L329.229 245.605L329.483 245.748L329.483 246.04L328.983 246.04ZM333.483 243.039L333.059 242.774L333.983 241.299L333.983 243.039L333.483 243.039ZM333.728 248.249L349.729 257.25L349.238 258.121L333.238 249.121L333.728 248.249ZM314.974 237.565L329.229 245.605L328.738 246.476L314.482 238.436L314.974 237.565ZM329.483 246.04L329.483 250.222L328.483 250.222L328.483 246.04L329.483 246.04ZM328.559 249.957L333.059 242.774L333.907 243.305L329.407 250.487L328.559 249.957ZM333.983 243.039L333.983 248.685L332.983 248.685L332.983 243.039L333.983 243.039Z" fill="#767676"/>
<path d="M349.861 258.164C349.623 258.303 349.316 258.224 349.177 257.985C349.037 257.747 349.117 257.441 349.355 257.301L349.861 258.164ZM383.481 237.566C383.721 237.43 384.027 237.514 384.163 237.754C384.299 237.995 384.215 238.3 383.974 238.436L383.481 237.566ZM365.16 252.354L365.647 252.468L365.207 254.335L364.679 252.491L365.16 252.354ZM373.704 243.683L373.454 243.25L373.457 243.248L373.704 243.683ZM364.243 249.146L363.99 248.714L364.546 248.388L364.723 249.008L364.243 249.146ZM367.327 243.16L366.841 243.045L367.258 241.274L367.804 243.01L367.327 243.16ZM368.447 246.718L368.697 247.151L368.158 247.463L367.971 246.868L368.447 246.718ZM371.251 245.1L371.501 245.533L371.251 245.1ZM373.457 243.248L383.481 237.566L383.974 238.436L373.95 244.118L373.457 243.248ZM349.355 257.301L363.99 248.714L364.496 249.577L349.861 258.164L349.355 257.301ZM364.723 249.008L365.641 252.216L364.679 252.491L363.762 249.283L364.723 249.008ZM364.674 252.239L366.841 243.045L367.814 243.274L365.647 252.468L364.674 252.239ZM367.804 243.01L368.924 246.568L367.971 246.868L366.851 243.31L367.804 243.01ZM368.197 246.285L371.001 244.667L371.501 245.533L368.697 247.151L368.197 246.285ZM371.001 244.667L373.454 243.25L373.954 244.116L371.501 245.533L371.001 244.667Z" fill="#767676"/>
<path d="M314.756 353.744L346.5 401.5" stroke="#767676" stroke-linecap="round"/>
<path d="M315 354L349.5 373" stroke="#767676" stroke-linecap="round"/>
<path d="M383.5 355L352.5 401.5" stroke="#767676" stroke-linecap="round"/>
<path d="M346.5 401.5H352.5" stroke="#767676" stroke-linecap="round"/>
<path d="M205.5 418.5L239.338 437V465.271H236.5L232.837 459.5L205.5 418.5Z" fill="#B6B6B6"/>
<path d="M239.5 465.271V437L273 419L242.289 465.271H239.5Z" fill="#909090"/>
<path d="M239.228 296.502L253.728 305.002L273.728 316.002L258.5 325L257.5 321L255 330L254.5 327L239.5 335.5L223.5 326.5V321.5L219 328V324L205.228 316.002L239.228 296.502Z" fill="#AEAEAE"/>
<path d="M204.742 315.782L219 324V328.5L223 322L223.5 326.5L239.539 335.898L239.5 436.5L224 428L219.5 425.5L204.742 417.501V315.782Z" fill="#B6B6B6"/>
<path d="M239.728 336.001L254 327.5L255 331L257.5 322.5L258.5 325L273.415 317.001V360.127V418.5L258.728 426.501L254.228 429.001L239.728 436.5V336.001Z" fill="#909090"/>
<path d="M239.228 296.001L204.728 315.919" stroke="#767676" stroke-linecap="round"/>
<path d="M273.5 418.5L239.5 437" stroke="#767676" stroke-linecap="round"/>
<path d="M273.728 316.501L239.228 296" stroke="#767676" stroke-linecap="round"/>
<path d="M204.728 316.004L204.728 417.591" stroke="#767676" stroke-linecap="round"/>
<path d="M239.524 336.197L239.524 465.5" stroke="#767676" stroke-linecap="round"/>
<path d="M273.728 316.501L273.728 418.634" stroke="#767676" stroke-linecap="round"/>
<path d="M204.482 316.436C204.242 316.301 204.157 315.996 204.293 315.755C204.428 315.515 204.733 315.43 204.974 315.565L204.482 316.436ZM239.729 335.25C239.969 335.385 240.055 335.69 239.919 335.931C239.784 336.171 239.479 336.257 239.238 336.121L239.729 335.25ZM218.983 328.222L219.407 328.487L218.483 329.962L218.483 328.222L218.983 328.222ZM223.483 326.685L223.238 327.121L222.983 326.978L222.983 326.685L223.483 326.685ZM218.983 324.04L219.229 323.605L219.483 323.748L219.483 324.04L218.983 324.04ZM223.483 321.039L223.059 320.774L223.983 319.299L223.983 321.039L223.483 321.039ZM223.728 326.249L239.729 335.25L239.238 336.121L223.238 327.121L223.728 326.249ZM204.974 315.565L219.229 323.605L218.738 324.476L204.482 316.436L204.974 315.565ZM219.483 324.04L219.483 328.222L218.483 328.222L218.483 324.04L219.483 324.04ZM218.559 327.957L223.059 320.774L223.907 321.305L219.407 328.487L218.559 327.957ZM223.983 321.039L223.983 326.685L222.983 326.685L222.983 321.039L223.983 321.039Z" fill="#767676"/>
<path d="M239.861 336.164C239.623 336.303 239.316 336.224 239.177 335.985C239.037 335.747 239.117 335.441 239.355 335.301L239.861 336.164ZM273.253 316.065C273.494 315.929 273.799 316.013 273.935 316.253C274.071 316.494 273.987 316.799 273.746 316.935L273.253 316.065ZM255.16 330.354L255.647 330.468L255.207 332.335L254.679 330.491L255.16 330.354ZM258.5 325L258.746 325.435L258.204 325.743L258.022 325.146L258.5 325ZM254.243 327.146L253.99 326.714L254.546 326.388L254.723 327.008L254.243 327.146ZM257.327 321.16L256.841 321.045L257.265 319.244L257.806 321.014L257.327 321.16ZM258.253 324.565L273.253 316.065L273.746 316.935L258.746 325.435L258.253 324.565ZM239.355 335.301L253.99 326.714L254.496 327.577L239.861 336.164L239.355 335.301ZM254.723 327.008L255.641 330.216L254.679 330.491L253.762 327.283L254.723 327.008ZM254.674 330.239L256.841 321.045L257.814 321.274L255.647 330.468L254.674 330.239ZM257.806 321.014L258.978 324.854L258.022 325.146L256.849 321.306L257.806 321.014Z" fill="#767676"/>
<path d="M239.228 180.502L253.728 189.002L273.728 200.002L239.728 220.002L205.228 200.002L239.228 180.502Z" fill="#AEAEAE"/>
<path d="M204.742 199.782L239.539 219.898L239.228 321.001L223.728 312.501V306.501L219.228 313.001V310.001L204.742 301.501V199.782Z" fill="#B6B6B6"/>
<path d="M239.728 220.001L273.415 201.001V244.127V302L258.728 310.501L257.228 306.001L255.228 315.001L254.228 313.001L239.728 322.001V220.001Z" fill="#909090"/>
<path d="M239.228 180.001L204.728 199.919" stroke="#767676" stroke-linecap="round"/>
<path d="M273.728 200.502L239.525 220.148" stroke="#767676" stroke-linecap="round"/>
<line x1="0.5" y1="-0.5" x2="39.9618" y2="-0.5" transform="matrix(-0.866025 -0.5 -0.5 0.866025 239.376 220.553)" stroke="#767676" stroke-linecap="round"/>
<path d="M273.728 200.501L239.228 180" stroke="#767676" stroke-linecap="round"/>
<path d="M204.728 200.004L204.728 302.001" stroke="#767676" stroke-linecap="round"/>
<path d="M239.525 220.197L239.525 321.718" stroke="#767676" stroke-linecap="round"/>
<path d="M273.728 200.501L273.728 301.807" stroke="#767676" stroke-linecap="round"/>
<path d="M204.482 302.436C204.242 302.301 204.157 301.996 204.293 301.755C204.428 301.515 204.733 301.43 204.974 301.565L204.482 302.436ZM239.729 321.25C239.969 321.385 240.055 321.69 239.919 321.931C239.784 322.171 239.479 322.257 239.238 322.121L239.729 321.25ZM218.983 314.222L219.407 314.487L218.483 315.962L218.483 314.222L218.983 314.222ZM223.483 312.685L223.238 313.121L222.983 312.978L222.983 312.685L223.483 312.685ZM218.983 310.04L219.229 309.605L219.483 309.748L219.483 310.04L218.983 310.04ZM223.483 307.039L223.059 306.774L223.983 305.299L223.983 307.039L223.483 307.039ZM223.728 312.249L239.729 321.25L239.238 322.121L223.238 313.121L223.728 312.249ZM204.974 301.565L219.229 309.605L218.738 310.476L204.482 302.436L204.974 301.565ZM219.483 310.04L219.483 314.222L218.483 314.222L218.483 310.04L219.483 310.04ZM218.559 313.957L223.059 306.774L223.907 307.305L219.407 314.487L218.559 313.957ZM223.983 307.039L223.983 312.685L222.983 312.685L222.983 307.039L223.983 307.039Z" fill="#767676"/>
<path d="M239.861 322.164C239.623 322.303 239.316 322.224 239.177 321.985C239.037 321.747 239.117 321.441 239.355 321.301L239.861 322.164ZM273.481 301.566C273.721 301.43 274.027 301.514 274.163 301.754C274.299 301.995 274.215 302.3 273.974 302.436L273.481 301.566ZM255.16 316.354L255.647 316.468L255.207 318.335L254.679 316.491L255.16 316.354ZM263.704 307.683L263.454 307.25L263.457 307.248L263.704 307.683ZM254.243 313.146L253.99 312.714L254.546 312.388L254.723 313.008L254.243 313.146ZM257.327 307.16L256.841 307.045L257.258 305.274L257.804 307.01L257.327 307.16ZM258.447 310.718L258.697 311.151L258.158 311.463L257.971 310.868L258.447 310.718ZM261.251 309.1L261.501 309.533L261.251 309.1ZM263.457 307.248L273.481 301.566L273.974 302.436L263.95 308.118L263.457 307.248ZM239.355 321.301L253.99 312.714L254.496 313.577L239.861 322.164L239.355 321.301ZM254.723 313.008L255.641 316.216L254.679 316.491L253.762 313.283L254.723 313.008ZM254.674 316.239L256.841 307.045L257.814 307.274L255.647 316.468L254.674 316.239ZM257.804 307.01L258.924 310.568L257.971 310.868L256.851 307.31L257.804 307.01ZM258.197 310.285L261.001 308.667L261.501 309.533L258.697 311.151L258.197 310.285ZM261.001 308.667L263.454 307.25L263.954 308.116L261.501 309.533L261.001 308.667Z" fill="#767676"/>
<path d="M204.756 417.744L236.5 465.5" stroke="#767676" stroke-linecap="round"/>
<path d="M205 418L239.5 437" stroke="#767676" stroke-linecap="round"/>
<path d="M273.5 419L242.5 465.5" stroke="#767676" stroke-linecap="round"/>
<path d="M236.5 465.5H242.5" stroke="#767676" stroke-linecap="round"/>
<path d="M235.43 28.999L394.43 115.999L239.43 205.999L84.4297 116.999L235.43 28.999Z" fill="#A2A2A2"/>
<path d="M235.43 28.999L394.43 115.999L239.43 205.999L84.4297 116.999L235.43 28.999Z" stroke="black"/>
<path d="M84.4985 116.713L239.499 206V231L84.4985 141.817V116.713Z" fill="#B6B6B6"/>
<path d="M84.4985 116.713L239.499 206V231L84.4985 141.817V116.713Z" stroke="black"/>
<path d="M394.498 116.5L239.498 206V231L394.498 141V116.5Z" fill="#909090"/>
<path d="M394.498 116.5L239.498 206V231L394.498 141V116.5Z" stroke="black"/>
<path d="M394.5 140.995L239.601 230.944" stroke="#767676" stroke-linecap="round"/>
<path d="M394.5 116.495L239.601 205.945" stroke="#767676" stroke-linecap="round"/>
<path d="M239.5 230.994L84.5156 141.994" stroke="#767676" stroke-linecap="round" stroke-linejoin="round"/>
<path d="M239.574 206.062L84.5156 116.994" stroke="#767676" stroke-linecap="round"/>
<path d="M394.502 115.995L235.5 29.0001" stroke="#767676" stroke-linecap="round"/>
<path d="M235.5 29.0001L84.4991 116.994" stroke="#767676" stroke-linecap="round"/>
<path d="M239.516 230.885V205.994" stroke="#767676" stroke-linecap="round"/>
<path d="M394.515 140.843V115.994" stroke="#767676" stroke-linecap="round"/>
<path d="M84.5035 141.995C84.4878 141.583 84.499 116.995 84.499 116.995" stroke="#767676" stroke-linecap="round"/>
<path d="M48.5316 39.866L77.7311 22.6889" stroke="#525252" stroke-width="3" stroke-linecap="round" stroke-linejoin="bevel"/>
<path d="M16.9261 22.002L48.1865 40.2096" stroke="#525252" stroke-width="3" stroke-linecap="round" stroke-linejoin="round"/>
<path d="M9.90234 24.0918L4.0332 39.0234H2.07031L4.02344 34.4727L0.0585938 24.0918H2.04102L5.01953 32.168L7.98828 24.0918H9.90234Z" fill="#525252"/>
<path d="M68.8916 93.7686H58.7354V91.9717L66.5186 80.9463H59.0869V79.2275H68.6963V80.9756L60.8252 92.0498H68.8916V93.7686Z" fill="#525252"/>
<path d="M98.1855 33.9932H95.9297L93.2832 29.8721L90.5586 33.9932H88.4785L92.2676 28.583L88.5176 23.085H90.7734L93.4004 27.167L96.0957 23.085H98.1855L94.416 28.4561L98.1855 33.9932Z" fill="#525252"/>
<path d="M48.187 40.2617C48.187 40.2617 48.187 76.6767 48.187 79.7685" stroke="#525252" stroke-width="3" stroke-linecap="round"/>
<path d="M77.9404 29.6553L77.307 23.0771L71.8106 19.4536L91.1306 14.7882L77.9404 29.6553Z" fill="#525252"/>
<path d="M24.1689 19.876L18.4432 22.9636L17.3425 29.6252L5.22287 13.8736L24.1689 19.876Z" fill="#525252"/>
<path d="M42.374 75.4932L48.1874 78.4124L54.2756 75.4932L48.3242 94.4557L42.374 75.4932Z" fill="#525252"/>
<path d="M320.266 149.266C319.844 149.375 319.398 149.457 318.93 149.512C318.469 149.566 318.008 149.594 317.547 149.594C316.242 149.594 315.18 149.227 314.359 148.492C313.547 147.758 313.102 146.711 313.023 145.352C312.922 145.352 312.824 145.352 312.73 145.352C312.637 145.352 312.555 145.352 312.484 145.352C311.305 145.352 310.238 145.152 309.285 144.754C308.34 144.348 307.531 143.758 306.859 142.984C306.188 142.211 305.672 141.258 305.312 140.125C304.953 138.992 304.773 137.711 304.773 136.281C304.773 134.812 304.953 133.523 305.312 132.414C305.68 131.305 306.199 130.352 306.871 129.555C307.543 128.781 308.352 128.195 309.297 127.797C310.25 127.391 311.312 127.188 312.484 127.188C313.672 127.188 314.742 127.395 315.695 127.809C316.648 128.223 317.453 128.805 318.109 129.555C318.773 130.32 319.289 131.27 319.656 132.402C320.023 133.535 320.207 134.828 320.207 136.281C320.207 138.539 319.766 140.402 318.883 141.871C318 143.34 316.793 144.336 315.262 144.859C315.301 145.297 315.375 145.688 315.484 146.031C315.602 146.383 315.75 146.66 315.93 146.863C316.141 147.105 316.395 147.281 316.691 147.391C316.996 147.508 317.41 147.566 317.934 147.566C318.246 147.566 318.613 147.516 319.035 147.414C319.457 147.32 319.762 147.234 319.949 147.156H320.266V149.266ZM317.793 136.281C317.793 135.125 317.668 134.102 317.418 133.211C317.168 132.32 316.816 131.582 316.363 130.996C315.902 130.395 315.344 129.945 314.688 129.648C314.039 129.344 313.309 129.191 312.496 129.191C311.652 129.191 310.914 129.34 310.281 129.637C309.656 129.926 309.102 130.379 308.617 130.996C308.156 131.59 307.801 132.336 307.551 133.234C307.309 134.133 307.188 135.148 307.188 136.281C307.188 138.57 307.668 140.324 308.629 141.543C309.59 142.762 310.879 143.371 312.496 143.371C314.113 143.371 315.398 142.762 316.352 141.543C317.312 140.324 317.793 138.57 317.793 136.281ZM332.875 131.91L325.832 149.828H323.477L325.82 144.367L321.062 131.91H323.441L327.016 141.602L330.578 131.91H332.875Z" fill="#00FF57"/>
<path d="M326.723 61H324.402V45.9648L319.855 56.1953H318.449L313.938 45.9648V61H311.77V43.5508H314.934L319.293 53.2656L323.5 43.5508H326.723V61ZM340.375 47.9102L333.332 65.8281H330.977L333.32 60.3672L328.562 47.9102H330.941L334.516 57.6016L338.078 47.9102H340.375Z" fill="#FF0000"/>
<path d="M155.723 60H153.402V44.9648L148.855 55.1953H147.449L142.938 44.9648V60H140.77V42.5508H143.934L148.293 52.2656L152.5 42.5508H155.723V60ZM169.258 60H166.551L163.375 55.0547L160.105 60H157.609L162.156 53.5078L157.656 46.9102H160.363L163.516 51.8086L166.75 46.9102H169.258L164.734 53.3555L169.258 60Z" fill="#00FF57"/>
<path d="M155.266 150.266C154.844 150.375 154.398 150.457 153.93 150.512C153.469 150.566 153.008 150.594 152.547 150.594C151.242 150.594 150.18 150.227 149.359 149.492C148.547 148.758 148.102 147.711 148.023 146.352C147.922 146.352 147.824 146.352 147.73 146.352C147.637 146.352 147.555 146.352 147.484 146.352C146.305 146.352 145.238 146.152 144.285 145.754C143.34 145.348 142.531 144.758 141.859 143.984C141.188 143.211 140.672 142.258 140.312 141.125C139.953 139.992 139.773 138.711 139.773 137.281C139.773 135.812 139.953 134.523 140.312 133.414C140.68 132.305 141.199 131.352 141.871 130.555C142.543 129.781 143.352 129.195 144.297 128.797C145.25 128.391 146.312 128.188 147.484 128.188C148.672 128.188 149.742 128.395 150.695 128.809C151.648 129.223 152.453 129.805 153.109 130.555C153.773 131.32 154.289 132.27 154.656 133.402C155.023 134.535 155.207 135.828 155.207 137.281C155.207 139.539 154.766 141.402 153.883 142.871C153 144.34 151.793 145.336 150.262 145.859C150.301 146.297 150.375 146.688 150.484 147.031C150.602 147.383 150.75 147.66 150.93 147.863C151.141 148.105 151.395 148.281 151.691 148.391C151.996 148.508 152.41 148.566 152.934 148.566C153.246 148.566 153.613 148.516 154.035 148.414C154.457 148.32 154.762 148.234 154.949 148.156H155.266V150.266ZM152.793 137.281C152.793 136.125 152.668 135.102 152.418 134.211C152.168 133.32 151.816 132.582 151.363 131.996C150.902 131.395 150.344 130.945 149.688 130.648C149.039 130.344 148.309 130.191 147.496 130.191C146.652 130.191 145.914 130.34 145.281 130.637C144.656 130.926 144.102 131.379 143.617 131.996C143.156 132.59 142.801 133.336 142.551 134.234C142.309 135.133 142.188 136.148 142.188 137.281C142.188 139.57 142.668 141.324 143.629 142.543C144.59 143.762 145.879 144.371 147.496 144.371C149.113 144.371 150.398 143.762 151.352 142.543C152.312 141.324 152.793 139.57 152.793 137.281ZM167.758 146H165.051L161.875 141.055L158.605 146H156.109L160.656 139.508L156.156 132.91H158.863L162.016 137.809L165.25 132.91H167.758L163.234 139.355L167.758 146Z" fill="#FF0000"/>
<path d="M256.25 20H253.648L245.938 4.95312V20H243.77V2.55078H247.062L254.082 16.3672V2.55078H256.25V20Z" fill="#0500FF"/>
<path d="M216.691 127.262L151.5 171" stroke="#FF0000" stroke-width="4" stroke-linecap="round"/>
<path d="M218.637 137.121L217 127.325L208.441 122.287L236.615 113.845L218.637 137.121Z" fill="#FF0000"/>
<path d="M183.75 57.4492L184.613 67.3434L192.75 73.0377L164.001 79.2435L183.75 57.4492Z" fill="#00FF57"/>
<path d="M283.734 73.2949L291.872 67.6007L292.734 57.7065L312.483 79.5007L283.734 73.2949Z" fill="#FF0000"/>
<path d="M185.493 66.5062C209.201 52.2676 263.125 53.7952 291.012 128.011" stroke="#00FF57" stroke-width="4" stroke-linecap="round"/>
<path d="M186 128C185.051 116.389 218.603 35.255 291.016 66.9894" stroke="#FF0000" stroke-width="4" stroke-linecap="round"/>
<path d="M258.188 126L327.5 169.5" stroke="#00FF57" stroke-width="4" stroke-linecap="round"/>
<path d="M237 14.5V88" stroke="#0500FF" stroke-width="4" stroke-linecap="round" stroke-linejoin="bevel"/>
<path d="M228 85L237 89.2L246 85L237 113L228 85Z" fill="#0500FF"/>
<path d="M266.25 120L258.113 125.694L257.25 135.588L237.501 113.794L266.25 120Z" fill="#00FF57"/>
</svg>
