<svg width="471" height="380" viewBox="0 0 471 380" fill="none" xmlns="http://www.w3.org/2000/svg">
<path d="M470 69.9883L408.519 69.9883" stroke="black"/>
<line y1="-0.5" x2="7.41127" y2="-0.5" transform="matrix(-0.614362 0.789024 -0.78968 -0.613519 92.5547 77)" stroke="black"/>
<line y1="-0.5" x2="7.41127" y2="-0.5" transform="matrix(-0.614362 0.789024 -0.78968 -0.613519 95.1562 77)" stroke="black"/>
<path d="M101 73L108 73.6429L102.591 76.2143L106.409 77.8214L103.545 79.1071L105.136 80.0714V82" stroke="black"/>
<path d="M125 73L132 73.6429L126.591 76.2143L130.409 77.8214L127.545 79.1071L129.136 80.0714V82" stroke="black"/>
<path d="M79 73L86 73.6429L80.5909 76.2143L84.4091 77.8214L81.5455 79.1071L83.1364 80.0714V82" stroke="black"/>
<path d="M260.5 33.8203H284.5V93H260.5V33.8203Z" fill="#8D8D8D" stroke="black"/>
<rect x="241.508" y="92.3965" width="62.0629" height="21" fill="#8D8D8D" stroke="black"/>
<rect x="209.977" y="113.055" width="125.126" height="21" fill="#8D8D8D" stroke="black"/>
<path d="M469.91 69.9727L408.496 69.9727" stroke="black"/>
<path d="M132.75 69.9727L60.0015 69.9727" stroke="black"/>
<path d="M385.5 134.5L408.738 69.9722" stroke="black"/>
<path d="M166.5 134.5L132.527 69.972" stroke="black"/>
<path d="M77.5 70.5L77.5 365.5" stroke="black"/>
<path d="M470 69.5L470 366" stroke="black"/>
<path d="M269.902 336H268.066V329.789C268.066 329.288 268.04 328.822 267.988 328.393C267.943 327.956 267.852 327.608 267.715 327.348C267.565 327.074 267.357 326.872 267.09 326.742C266.823 326.605 266.458 326.537 265.996 326.537C265.54 326.537 265.068 326.661 264.58 326.908C264.098 327.149 263.626 327.465 263.164 327.855V336H261.328V325.092H263.164V326.303C263.711 325.814 264.251 325.44 264.785 325.18C265.319 324.919 265.882 324.789 266.475 324.789C267.549 324.789 268.389 325.144 268.994 325.854C269.6 326.557 269.902 327.579 269.902 328.92V336ZM275.342 336H273.008V333.217H275.342V336ZM281.396 336H279.062V333.217H281.396V336Z" fill="black"/>
<line x1="60" y1="234.525" x2="469.492" y2="234.525" stroke="black"/>
<path d="M55.5 298.525H259L263 285L269 311L273 298.525H334H470.243" stroke="black"/>
<path d="M55.5 365.525H257.998L261.998 352L267.998 378L271.998 365.525H332.998H469.998" stroke="black"/>
<line x1="272.539" y1="33.8203" x2="233.44" y2="33.8203" stroke="black"/>
<path d="M332 0.5L241.782 0.5" stroke="black"/>
<line x1="242.213" y1="33.1777" x2="250.185" y2="25.2054" stroke="black"/>
<line x1="234.354" y1="25.205" x2="242.326" y2="33.1773" stroke="black"/>
<path d="M242.285 33.5078V0.248025" stroke="black"/>
<path d="M299.77 172.031H389.757" stroke="black"/>
<line x1="300.326" y1="134.354" x2="292.354" y2="142.326" stroke="black"/>
<line x1="308.186" y1="142.326" x2="300.213" y2="134.354" stroke="black"/>
<path d="M300.254 134.023V172" stroke="black"/>
<path d="M193 37.252L102.782 37.252" stroke="black"/>
<line x1="103.213" y1="69.9296" x2="111.185" y2="61.9574" stroke="black"/>
<line x1="95.3536" y1="61.957" x2="103.326" y2="69.9293" stroke="black"/>
<path d="M103.285 70.2598V37" stroke="black"/>
<path d="M470 69.9883L408.519 69.9883" stroke="black"/>
<path d="M55.5 88L141.999 88" stroke="black"/>
<path d="M402.5 88L469.977 88" stroke="black"/>
<line y1="-0.5" x2="7.41127" y2="-0.5" transform="matrix(-0.614362 0.789024 -0.78968 -0.613519 97.7578 77)" stroke="black"/>
<line y1="-0.5" x2="7.41127" y2="-0.5" transform="matrix(-0.614362 0.789024 -0.78968 -0.613519 115.555 75)" stroke="black"/>
<line y1="-0.5" x2="7.41127" y2="-0.5" transform="matrix(-0.614362 0.789024 -0.78968 -0.613519 118.156 75)" stroke="black"/>
<line y1="-0.5" x2="7.41127" y2="-0.5" transform="matrix(-0.614362 0.789024 -0.78968 -0.613519 120.758 75)" stroke="black"/>
<path d="M386 134.444L166.005 134.444" stroke="black"/>
<path d="M469.91 69.9727L408.496 69.9727" stroke="black"/>
<circle cx="272.5" cy="178.5" r="13" fill="white" stroke="black"/>
<path d="M276.297 186H269.207V184.516H271.844V174.77H269.207V173.441C270.203 173.441 270.936 173.301 271.404 173.021C271.88 172.735 272.146 172.198 272.205 171.41H273.719V184.516H276.297V186Z" fill="black"/>
<circle cx="272.5" cy="262.5" r="13" fill="white" stroke="black"/>
<path d="M277.039 270H268.064V267.959C268.709 267.347 269.318 266.761 269.891 266.201C270.464 265.641 271.023 265.059 271.57 264.453C272.677 263.236 273.432 262.262 273.836 261.533C274.24 260.798 274.441 260.039 274.441 259.258C274.441 258.854 274.376 258.499 274.246 258.193C274.122 257.887 273.95 257.633 273.729 257.432C273.501 257.236 273.237 257.09 272.938 256.992C272.638 256.895 272.309 256.846 271.951 256.846C271.606 256.846 271.255 256.891 270.896 256.982C270.545 257.067 270.206 257.174 269.881 257.305C269.607 257.415 269.344 257.549 269.09 257.705C268.836 257.861 268.631 257.995 268.475 258.105H268.367V256.035C268.771 255.833 269.331 255.638 270.047 255.449C270.77 255.254 271.453 255.156 272.098 255.156C273.452 255.156 274.513 255.518 275.281 256.24C276.049 256.956 276.434 257.93 276.434 259.16C276.434 259.727 276.365 260.251 276.229 260.732C276.098 261.214 275.916 261.66 275.682 262.07C275.441 262.493 275.151 262.913 274.812 263.33C274.474 263.747 274.116 264.157 273.738 264.561C273.126 265.225 272.443 265.915 271.688 266.631C270.939 267.347 270.34 267.913 269.891 268.33H277.039V270Z" fill="black"/>
<circle cx="272.5" cy="332.5" r="13" fill="white" stroke="black"/>
<path d="M268.203 340H266.367V329.092H268.203V340ZM268.33 327.266H266.24V325.361H268.33V327.266ZM273.76 340H271.426V337.217H273.76V340ZM279.814 340H277.48V337.217H279.814V340Z" fill="black"/>
<line y1="-0.5" x2="7.41127" y2="-0.5" transform="matrix(-0.614362 0.789024 -0.78968 -0.613519 424.555 77)" stroke="black"/>
<line y1="-0.5" x2="7.41127" y2="-0.5" transform="matrix(-0.614362 0.789024 -0.78968 -0.613519 427.156 77)" stroke="black"/>
<path d="M434 74L441 74.6429L435.591 77.2143L439.409 78.8214L436.545 80.1071L438.136 81.0714V83" stroke="black"/>
<path d="M410 73L417 73.6429L411.591 76.2143L415.409 77.8214L412.545 79.1071L414.136 80.0714V82" stroke="black"/>
<path d="M458 74L465 74.6429L459.591 77.2143L463.409 78.8214L460.545 80.1071L462.136 81.0714V83" stroke="black"/>
<line y1="-0.5" x2="7.41127" y2="-0.5" transform="matrix(-0.614362 0.789024 -0.78968 -0.613519 429.758 77)" stroke="black"/>
<line y1="-0.5" x2="7.41127" y2="-0.5" transform="matrix(-0.614362 0.789024 -0.78968 -0.613519 448.555 76)" stroke="black"/>
<line y1="-0.5" x2="7.41127" y2="-0.5" transform="matrix(-0.614362 0.789024 -0.78968 -0.613519 451.156 76)" stroke="black"/>
<line y1="-0.5" x2="7.41127" y2="-0.5" transform="matrix(-0.614362 0.789024 -0.78968 -0.613519 453.758 76)" stroke="black"/>
<path d="M133 69.9961L17.4986 69.9961" stroke="black"/>
<path d="M57 73.7773L64.7782 65.9992" stroke="black"/>
<path d="M57 91.7773L64.7782 83.9992" stroke="black"/>
<path d="M57.5 302L64.5711 294.929" stroke="black"/>
<path d="M57.5 369L64.5711 361.929" stroke="black"/>
<path d="M57.5 238L64.5711 230.929" stroke="black"/>
<path d="M61 36L61 371" stroke="black"/>
<path d="M78.0013 205.476L17.4582 205.478" stroke="black"/>
<path d="M76.9985 234.481L55.5 234.482" stroke="black"/>
<line x1="402" y1="205.5" x2="422" y2="205.5" stroke="#3288D7"/>
<line x1="442" y1="205.5" x2="462" y2="205.5" stroke="#3288D7"/>
<line x1="362" y1="205.5" x2="382" y2="205.5" stroke="#3288D7"/>
<line x1="322" y1="205.5" x2="342" y2="205.5" stroke="#3288D7"/>
<line x1="282" y1="205.5" x2="302" y2="205.5" stroke="#3288D7"/>
<line x1="242" y1="205.5" x2="262" y2="205.5" stroke="#3288D7"/>
<line x1="202" y1="205.5" x2="222" y2="205.5" stroke="#3288D7"/>
<line x1="162" y1="205.5" x2="182" y2="205.5" stroke="#3288D7"/>
<line x1="122" y1="205.5" x2="142" y2="205.5" stroke="#3288D7"/>
<line x1="82" y1="205.5" x2="102" y2="205.5" stroke="#3288D7"/>
<path d="M90 196H100L95 206L90 196Z" fill="#3288D7"/>
<path d="M54 153.269V155H43.6113L54 160.915V162.673H40.9131V160.941H51.1348L40.9131 155.105V153.269H54ZM42.46 142.854L42.46 148.874H54V150.614H40.9131L40.9131 142.854H42.46ZM47.4082 132.588C49.4883 132.588 51.1465 133.139 52.3828 134.24C53.6191 135.336 54.2373 136.771 54.2373 138.547C54.2373 139.297 54.1611 140.006 54.0088 140.674C53.8623 141.336 53.6719 141.919 53.4375 142.423H51.5127V142.291C51.8936 141.869 52.1982 141.333 52.4268 140.683C52.6494 140.032 52.7607 139.338 52.7607 138.6C52.7607 137.34 52.3008 136.314 51.3809 135.523C50.4609 134.732 49.248 134.337 47.7422 134.337V140.718H46.2217V134.425C44.9561 134.56 43.9629 134.999 43.2422 135.743C42.5156 136.481 42.1523 137.434 42.1523 138.6C42.1523 139.32 42.2637 139.994 42.4863 140.621C42.709 141.248 43.0195 141.793 43.418 142.256V142.388H41.4844C41.2676 141.919 41.0801 141.345 40.9219 140.665C40.7578 139.979 40.6758 139.268 40.6758 138.529C40.6758 136.643 41.2617 135.181 42.4336 134.144C43.5996 133.106 45.2578 132.588 47.4082 132.588ZM54 118.016V124.396H52.6641V122.023H43.8926V124.396H42.6973C42.6973 123.5 42.5713 122.841 42.3193 122.419C42.0615 121.991 41.5781 121.751 40.8691 121.698V120.336H52.6641V118.016H54Z" fill="black"/>
<path d="M54 280.269V282H43.6113L54 287.915V289.673H40.9131V287.941H51.1348L40.9131 282.105V280.269H54ZM42.46 269.854L42.46 275.874H54V277.614H40.9131L40.9131 269.854H42.46ZM47.4082 259.588C49.4883 259.588 51.1465 260.139 52.3828 261.24C53.6191 262.336 54.2373 263.771 54.2373 265.547C54.2373 266.297 54.1611 267.006 54.0088 267.674C53.8623 268.336 53.6719 268.919 53.4375 269.423H51.5127V269.291C51.8936 268.869 52.1982 268.333 52.4268 267.683C52.6494 267.032 52.7607 266.338 52.7607 265.6C52.7607 264.34 52.3008 263.314 51.3809 262.523C50.4609 261.732 49.248 261.337 47.7422 261.337V267.718H46.2217V261.425C44.9561 261.56 43.9629 261.999 43.2422 262.743C42.5156 263.481 42.1523 264.434 42.1523 265.6C42.1523 266.32 42.2637 266.994 42.4863 267.621C42.709 268.248 43.0195 268.793 43.418 269.256V269.388H41.4844C41.2676 268.919 41.0801 268.345 40.9219 267.665C40.7578 266.979 40.6758 266.268 40.6758 265.529C40.6758 263.643 41.2617 262.181 42.4336 261.144C43.5996 260.106 45.2578 259.588 47.4082 259.588ZM54 244.348V252.425H52.1631C51.6123 251.845 51.085 251.297 50.5811 250.781C50.0771 250.266 49.5527 249.762 49.0078 249.27C47.9121 248.273 47.0361 247.594 46.3799 247.23C45.7178 246.867 45.0352 246.686 44.332 246.686C43.9687 246.686 43.6494 246.744 43.374 246.861C43.0986 246.973 42.8701 247.128 42.6885 247.327C42.5127 247.532 42.3809 247.77 42.293 248.039C42.2051 248.309 42.1611 248.604 42.1611 248.927C42.1611 249.237 42.2021 249.554 42.2842 249.876C42.3604 250.192 42.457 250.497 42.5742 250.79C42.6738 251.036 42.7939 251.273 42.9346 251.502C43.0752 251.73 43.1953 251.915 43.2949 252.056V252.152H41.4316C41.25 251.789 41.0742 251.285 40.9043 250.641C40.7285 249.99 40.6406 249.375 40.6406 248.795C40.6406 247.576 40.9658 246.621 41.6162 245.93C42.2607 245.238 43.1367 244.893 44.2441 244.893C44.7539 244.893 45.2256 244.954 45.6592 245.077C46.0928 245.194 46.4941 245.358 46.8633 245.569C47.2441 245.786 47.6221 246.047 47.9971 246.352C48.3721 246.656 48.7412 246.979 49.1045 247.318C49.7021 247.869 50.3232 248.484 50.9678 249.164C51.6123 249.838 52.1221 250.377 52.4971 250.781V244.348H54Z" fill="black"/>
<path d="M54 343.269V345H43.6113L54 350.915V352.673H40.9131V350.941H51.1348L40.9131 345.105V343.269H54ZM42.46 332.854L42.46 338.874H54V340.614H40.9131L40.9131 332.854H42.46ZM47.4082 322.588C49.4883 322.588 51.1465 323.139 52.3828 324.24C53.6191 325.336 54.2373 326.771 54.2373 328.547C54.2373 329.297 54.1611 330.006 54.0088 330.674C53.8623 331.336 53.6719 331.919 53.4375 332.423H51.5127V332.291C51.8936 331.869 52.1982 331.333 52.4268 330.683C52.6494 330.032 52.7607 329.338 52.7607 328.6C52.7607 327.34 52.3008 326.314 51.3809 325.523C50.4609 324.732 49.248 324.337 47.7422 324.337V330.718H46.2217V324.425C44.9561 324.56 43.9629 324.999 43.2422 325.743C42.5156 326.481 42.1523 327.434 42.1523 328.6C42.1523 329.32 42.2637 329.994 42.4863 330.621C42.709 331.248 43.0195 331.793 43.418 332.256V332.388H41.4844C41.2676 331.919 41.0801 331.345 40.9219 330.665C40.7578 329.979 40.6758 329.268 40.6758 328.529C40.6758 326.643 41.2617 325.181 42.4336 324.144C43.5996 323.106 45.2578 322.588 47.4082 322.588ZM54 313.5V315.152H44.1826V313.5H54ZM42.5391 313.386V315.267H40.8252V313.386H42.5391Z" fill="black"/>
<path d="M54 51.0977V52.9336H47.7891C47.2878 52.9336 46.8223 52.9596 46.3926 53.0117C45.9564 53.0573 45.6081 53.1484 45.3477 53.2852C45.0742 53.4349 44.8724 53.6432 44.7422 53.9102C44.6055 54.1771 44.5371 54.5417 44.5371 55.0039C44.5371 55.4596 44.6608 55.9316 44.9082 56.4199C45.1491 56.9017 45.4648 57.3737 45.8555 57.8359H54V59.6719H38.8047V57.8359H44.3027C43.8145 57.2891 43.4401 56.7487 43.1797 56.2148C42.9193 55.681 42.7891 55.1178 42.7891 54.5254C42.7891 53.4512 43.1439 52.6113 43.8535 52.0059C44.5566 51.4004 45.5788 51.0977 46.9199 51.0977H54ZM54 42.8887V44.1738H50.5615V47.6328H54V48.918H46.3643V47.6328H49.4541V44.1738H46.3643V42.8887H54Z" fill="black"/>
<path d="M19 73.7773L26.7782 65.9992" stroke="black"/>
<path d="M19.5 209L26.5711 201.929" stroke="black"/>
<path d="M23 64.5L23 211" stroke="black"/>
<path d="M16 136.273V138.109H14.8867C15.1276 138.396 15.3262 138.643 15.4824 138.852C15.6387 139.06 15.7819 139.304 15.9121 139.584C16.0358 139.844 16.1302 140.115 16.1953 140.395C16.2669 140.674 16.3027 141 16.3027 141.371C16.3027 141.964 16.179 142.514 15.9316 143.021C15.6842 143.523 15.3229 143.949 14.8477 144.301C14.3659 144.659 13.7734 144.936 13.0703 145.131C12.3607 145.326 11.5469 145.424 10.6289 145.424C9.67187 145.424 8.84505 145.3 8.14844 145.053C7.44531 144.805 6.83333 144.464 6.3125 144.027C5.83724 143.63 5.46615 143.152 5.19922 142.592C4.92578 142.025 4.78906 141.433 4.78906 140.814C4.78906 140.268 4.85091 139.792 4.97461 139.389C5.0918 138.985 5.27734 138.559 5.53125 138.109H0.804688L0.804688 136.273H16ZM13.3437 138.109H7.05469C6.83333 138.565 6.68034 138.975 6.5957 139.34C6.51107 139.698 6.46875 140.089 6.46875 140.512C6.46875 141.456 6.82357 142.195 7.5332 142.729C8.23633 143.262 9.25521 143.529 10.5898 143.529C11.8724 143.529 12.8555 143.324 13.5391 142.914C14.2161 142.504 14.5547 141.846 14.5547 140.941C14.5547 140.46 14.4473 139.975 14.2324 139.486C14.0111 138.998 13.7148 138.539 13.3437 138.109ZM8.36426 124.76L16 126.694V127.884L10.1143 129.75L16 131.603V132.785L8.36426 134.74L8.36426 133.4L14.2773 132.054L8.36426 130.242V129.183L14.2773 127.323L8.36426 126.052V124.76Z" fill="black"/>
</svg>
